%!PS-Adobe-3.0 EPSF-3.0
%%Title: /cea/S/dsku/deneb/hal1/home/l1/lefebver/K_lder/net_doc/densites.ps
%%Creator: IslandDraw for lefebver
%%CreationDate: Wed Apr  7 19:34:34 2004
%%Pages: 1
%%BoundingBox: 0 33 461 698
%%DocumentNeededResources: (atend)
%%DocumentSuppliedResources: (atend)
%%EndComments
save /d_sv_obj exch def

userdict /IslandDrawDict 300 dict dup begin put

/bdef	{bind def} bind def
/E	{exch} bdef
/FF	{findfont} bdef
/MF	{makefont} bdef
/RO	{rotate} bdef
/SC	{scale} bdef
/SF	{setfont} bdef
/SG	{setgray} bdef
/TR	{translate} bdef
/bp	{lj lw rgb} bdef
/bpbw	{lj lw setgray} bdef
/c	{curveto} bdef
/cl	{closepath} bdef
/fi	{eofill} bdef
/g	{setgray} bdef
/gr	{grestore} bdef
/gs	{gsave} bdef
/l	{lineto} bdef
/lj	{setlinejoin} bdef
/lw	{setlinewidth} bdef
/m	{moveto} bdef
/n	{newpath} bdef
/nx	{/x E def} bdef
/r	{rmoveto} bdef
/rl	{rlineto} bdef
/rgb	{setrgbcolor} bdef
/s	{show} bdef
/sd	{setdash} bdef
/sp	{x 0 rmoveto} bdef
/ss	{currentpoint pop E m} bdef
/st	{stroke} bdef
%% pattern stuff
/BPSIDE	32 def	%% pixels per pattern side
/PATFREQ 3.0 def	%% pattern pixels per mm
/dp_mat [PATFREQ 0 0 PATFREQ 0 0] def
/dp_pw	BPSIDE def	%% pattern pixel width
/dp_ph	BPSIDE def	%% pattern pixel height
/dp_w	dp_pw PATFREQ div def	%% pattern mm width
/dp_h	dp_ph PATFREQ div def	%% pattern mm height
/savemat matrix def
/topmat matrix def
/patmat matrix def

%%	catch nocurrentpoint error for:		pathbbox
/ncpoint errordict /nocurrentpoint get def
errordict begin
/nocurrentpoint	{
	dup /pathbbox load eq
	{pop 0 0 1 1}
	{ncpoint}
	ifelse
} bdef
end
/ar	{ %% sa ea sx sy rot tx ty
	matrix currentmatrix 8 1 roll TR RO SC
	n 0 0 1 5 3 roll arc setmatrix
} bdef
/arn	{ %% sa ea sx sy rot tx ty
 TR RO SC
	matrix currentmatrix 8 1 roll
	n 0 0 1 5 3 roll arcn setmatrix
} bdef
/el	{ %% sx sy rot tx ty
	matrix currentmatrix 6 1 roll TR RO SC
	n 0 0 1 0 360 arc setmatrix cl
} bdef
/image_raster	{ %% sw sh sd dw dh xs ys
	TR SC /sd E def /sh E def /sw E def
	/imagebuf sw sd mul 7 add 8 idiv string def
	sw sh sd [sw 0 0 sh 0 0] { currentfile imagebuf readhexstring pop}
	image
} bdef
/imagemask_raster	{
	TR SC /sh E def /sw E def
	/imagebuf sw 7 add 8 idiv string def
	sw sh false [sw 0 0 sh 0 0]
	{currentfile imagebuf readhexstring pop}
	imagemask
} bdef
/dither_color_raster    { % bool sw sh sd dw dh xs ys
	TR SC /sd E def /sh E def /sw E def
	sd 8 eq and
	{
	  /imagebuf 3 string def
	  /grayval 1 string def
	  sw sh sd [sw 0 0 sh 0 0]
	  {
	    currentfile imagebuf readhexstring pop pop
	    imagebuf 0 get 0.299 mul
	    imagebuf 1 get 0.587 mul add
	    imagebuf 2 get 0.114 mul add cvi grayval exch 0 exch put grayval
	  }
	  image
	}
	{
	  /imagebuf sw 3 mul sd mul 7 add 8 idiv string def
	  sh { currentfile imagebuf readhexstring pop pop } repeat
	} ifelse
} bdef
/image_color_raster	{ % bool sw sh sd dw dh xs ys
	/colorimage where not
	{ dither_color_raster }
	{
	  pop
	  TR SC /sd E def /sh E def /sw E def pop
	  /imagebuf sw 3 mul sd mul 7 add 8 idiv string def
	  sw sh sd [sw 0 0 sh 0 0] { currentfile imagebuf readhexstring pop}
	  false 3 colorimage
	} ifelse
} bdef
/patpath	{
	/inv E def
	topmat setmatrix
	pathbbox	%% get lo - hi indecies
	/hy E dp_h div floor cvi def
	/hx E dp_w div floor cvi def
	/ly E dp_h div floor cvi def
	/lx E dp_w div floor cvi def
	lx 1 hx	{
	    dp_w mul
	    ly 1 hy {
		dp_h mul
		E dup 3 1 roll E
		patmat currentmatrix pop
		TR
		dp_pw dp_ph inv
		dp_mat dp_proc imagemask
		patmat setmatrix
	    } for
	    pop
	} for
} bdef
% setpattern brush of patterns instead of gray
/setpattern	{
	/blue E def /green E def /red E def
	/freq E def /bwidth E def /bpside E def
	/bstring E def
	/onbits 0 def /offbits 0 def
	freq 0 {/y E def /x E def
		/xindex x 1 add 2 div bpside mul cvi def
		/yindex y 1 add 2 div bpside mul cvi def
		bstring yindex bwidth mul xindex 8 idiv add get not
		1 7 xindex 8 mod sub bitshift and 0 ne
		{/onbits onbits 1 add def 1}
		{/offbits offbits 1 add def 0}
		ifelse
	} setscreen {} settransfer
	systemdict /setcmykcolor known
	{ /fact 1 onbits offbits onbits add div sub def
	1 red sub fact mul 1 green sub fact mul 1 blue sub fact mul 0
		setcmykcolor
	}
	{ offbits offbits onbits add div setgray}
	ifelse
} bdef
/dmatrix matrix def
/dpi 72 0 dmatrix defaultmatrix dtransform
	dup mul E dup mul add sqrt
def

/B	{gs bp st gr} bdef %% brush: gr lw lj
/Bbw	{gs bpbw st gr} bdef %% brush: gr lw lj
/F	{gs rgb eofill gr} bdef %% fill: gr
/Fbw	{gs setgray eofill gr} bdef %% fill: gr
/PB	{gs lj lw setpattern st gr} bdef
/PF	{gs eoclip patpath gr} bdef
/BB	{gs rgb lj lw strokepath clip patpath gr} bdef
/xdef {exch def} bdef
/clip_region {
  /ht xdef
  /wd xdef
  /bm xdef
  /lm xdef
  newpath
      lm bm moveto
      0 ht rlineto
      wd 0 rlineto
      0 ht neg rlineto
  closepath clip
} bdef
%! Island text prolog Version 3.1
%%
%%BeginProlog
/reencode_small_dict 12 dict def
/ReencodeSmall {
reencode_small_dict begin
/new_codes_and_names exch def
/new_font_name exch def
/base_font_name exch def
/base_font_dict base_font_name findfont def
/newfont base_font_dict maxlength dict def
base_font_dict {
exch dup /FID ne
{ dup /Encoding eq
{ exch dup length array copy newfont 3 1 roll put }
{ exch newfont 3 1 roll put }
ifelse
}
{ pop pop }
ifelse
} forall
newfont /FontName new_font_name put
new_codes_and_names aload pop
new_codes_and_names length 2 idiv
{ newfont /Encoding get 3 1 roll put }
repeat
new_font_name newfont definefont pop
end     %reencode_small_dict
} def
/extended_Zapf [
8#223 /a89
8#224 /a90
8#225 /a93
8#226 /a94
8#227 /a91
8#230 /a92
8#231 /a205
8#232 /a85
8#233 /a206
8#234 /a86
8#235 /a87
8#236 /a88
8#237 /a95
8#240 /a96
] def
/extended_Standard [
29 /thorn
30 /yacute
31 /divide
128 /Acircumflex
129 /Adieresis
130 /Agrave
131 /Aring
132 /Atilde
133 /Ccedilla
134 /Eacute
135 /Ecircumflex
136 /Edieresis
137 /Egrave
138 /Iacute
139 /Icircumflex
140 /Idieresis
141 /Igrave
142 /Ntilde
143 /Oacute
144 /Ocircumflex
145 /Odieresis
146 /Ograve
147 /Otilde
148 /Scaron
149 /Uacute
150 /Ucircumflex
151 /Udieresis
152 /Ugrave
153 /Ydieresis
154 /Zcaron
155 /aacute
156 /acircumflex
157 /adieresis
158 /agrave
159 /aring
160 /atilde
161 /exclamdown
162 /cent
163 /sterling
164 /fraction
165 /yen
166 /florin
167 /section
168 /currency
169 /quotesingle
170 /quotedblleft
171 /guillemotleft
172 /guilsinglleft
173 /guilsinglright
174 /fi
175 /fl
176 /plusminus
177 /endash
178 /dagger
179 /daggerdbl
180 /periodcentered
181 /twosuperior
182 /paragraph
183 /bullet
184 /quotesinglbase
185 /quotedblbase
186 /quotedblright
187 /guillemotright
188 /ellipsis
189 /perthousand
190 /threesuperior
191 /questiondown
192 /mu
193 /grave
194 /acute
195 /circumflex
196 /tilde
197 /macron
198 /breve
199 /dotaccent
200 /dieresis
201 /onesuperior
202 /ring
203 /cedilla
204 /onequarter
205 /hungarumlaut
206 /ogonek
207 /caron
208 /emdash
209 /ccedilla
210 /copyright
211 /eacute
212 /ecircumflex
213 /edieresis
214 /egrave
215 /iacute
216 /icircumflex
217 /idieresis
218 /igrave
219 /logicalnot
220 /minus
221 /ntilde
222 /oacute
223 /ocircumflex
224 /odieresis
225 /AE
226 /onehalf
227 /ordfeminine
228 /ograve
229 /otilde
230 /registered
231 /scaron
232 /Lslash
233 /Oslash
234 /OE
235 /ordmasculine
236 /trademark
237 /uacute
238 /ucircumflex
239 /udieresis
240 /ugrave
241 /ae
242 /ydieresis
243 /zcaron
244 /Aacute
245 /dotlessi
246 /threequarters
247 /Eth
248 /lslash
249 /oslash
250 /oe
251 /germandbls
252 /multiply
253 /Yacute
254 /Thorn
255 /eth
] def
/extended_Symbol [
] def
/extend_font {  % stack: fontname newfontname
exch dup (ZapfDingbats) eq
{ cvn exch cvn extended_Zapf ReencodeSmall }
{ dup (Symbol) eq
{ cvn exch cvn extended_Symbol ReencodeSmall }
{ cvn exch cvn extended_Standard ReencodeSmall }
ifelse
}
ifelse
} bind def
/extend_font_name { % stack: font_name_string
dup length 1 add string /extended_font_name exch def
extended_font_name 0 (_) putinterval
extended_font_name 1 3 -1 roll putinterval
extended_font_name
} bind def
/gf {
/f exch def f cvn where
{ f exch begin cvn load exec setfont end }
{ f 0 f length 8 sub getinterval dup
/localfont exch extend_font_name def
localfont extend_font
localfont findfont
/xsz f f length 4 sub 4 getinterval cvi def
/ysz f f length 8 sub 4 getinterval cvi def
[ xsz 0 0 ysz neg 0 0 ] makefont dup f cvn exch def
setfont
}
ifelse
} bind def
/gfns {
/f exch def f cvn where
{ f exch begin cvn load exec setfont end }
{ f 0 f length 8 sub getinterval cvn findfont
/xsz f f length 4 sub 4 getinterval cvi def
/ysz f f length 8 sub 4 getinterval cvi def
[ xsz 0 0 ysz neg 0 0 ] makefont dup f cvn exch def
setfont
}
ifelse
} bind def
/ul { % space drop thickness
gs currentpoint currentlinewidth 
currentpoint n m 6 -3 roll 
lw 0 exch r
0 rl st lw m
gr 
} bind def
/nxtab { currentpoint pop 1000.0 mul cvi tab mod
	tab exch sub 1000.0 div 0 rmoveto } bind def
/nx { /x exch def } bind def
0. nx
%%EndProlog
gsave
2.83465 -2.83465 scale 0 -254 translate
topmat currentmatrix pop
n savemat currentmatrix pop [1 0 0 1 77.169 12.532] concat
25.4 1440 div 1.000000 mul dup scale 0 0 m
/tab 283.00 1000.0 mul cvi def

0 0 m 0 ss (Helvetica-Bold02800280) gf
0.00 0.00 0.00 rgb 
('prepl') s
savemat setmatrix
n 62.838 24.385 m 62.838 51.761 l
gsave
0 0 0 0 0 B
grestore
n 60.298 48.938 m 104.32 48.938 l
gsave
0 0 0 0 0 B
grestore
n savemat currentmatrix pop [1 0 0 1 58.322 25.514] concat
25.4 1440 div 1.000000 mul dup scale 0 0 m
/tab 283.00 1000.0 mul cvi def

0 0 m 0 ss (Helvetica02400240) gf
0.00 0.00 0.00 rgb 
(n) s
savemat setmatrix
n 84.469 33.416 m 94.342 33.416 l
gsave
0 0 0 0.352 0 B
grestore
n 83.686 29.061 m
86.186 28.228 l
86.186 29.894 l
cl
0 0 0 F
n 94.042 29.061 m
91.542 29.894 l
91.542 28.228 l
cl
0 0 0 F
n 86.186 29.061 m
91.542 29.061 l
gsave
0 0 0 0 0 B
grestore
n 94.889 31.725 m
97.389 30.892 l
97.389 32.558 l
cl
0 0 0 F
n 101.1 31.725 m
98.598 32.558 l
98.598 30.892 l
cl
0 0 0 F
n 97.389 31.725 m
98.598 31.725 l
gsave
0 0 0 0 0 B
grestore
n 94.447 33.698 m 100.09 41.373 l
gsave
0 0 0 0.352 0 B
grestore
n 89.21 47.97 m 89.21 50.227 l
gsave
0 0 0 0 0 B
grestore
n savemat currentmatrix pop [1 0 0 1 84.162 25.956] concat
25.4 1440 div 1.000000 mul dup scale 0 0 m
/tab 283.00 1000.0 mul cvi def

0 0 m 0 ss (Helvetica02400240) gf
0.00 0.00 0.00 rgb 
(largx) s
savemat setmatrix
n savemat currentmatrix pop [1 0 0 1 82.438 54.461] concat
25.4 1440 div 1.000000 mul dup scale 0 0 m
/tab 283.00 1000.0 mul cvi def

0 0 m 0 ss (Helvetica02400240) gf
0.00 0.00 0.00 rgb 
(centrex) s
savemat setmatrix
n savemat currentmatrix pop [1 0 0 1 93.76 28.62] concat
25.4 1440 div 1.000000 mul dup scale 0 0 m
/tab 283.00 1000.0 mul cvi def

0 0 m 0 ss (Helvetica02400240) gf
0.00 0.00 0.00 rgb 
(lgrpx) s
savemat setmatrix
n 62.818 48.93 m 69.738 48.93 l
gsave
0 0 0 0.352 0 B
grestore
n 99.94 48.855 m 104.38 48.862 l
gsave
0 0 0 0.352 0 B
grestore
n 100.09 48.855 m 100.1 41.216 l
gsave
0 0 0 0.352 0 B
grestore
n 69.738 44.983 m 83.969 44.983 l
gsave
0 0 0 0.352 0 B
grestore
n 84.233 45.221 m 84.239 33.38 l
gsave
0 0 0 0.352 0 B
grestore
n 69.628 49.052 m 69.635 44.82 l
gsave
0 0 0 0.352 0 B
grestore
n 69.785 36.083 m
72.285 35.25 l
72.285 36.916 l
cl
0 0 0 F
n 83.529 36.083 m
81.029 36.916 l
81.029 35.25 l
cl
0 0 0 F
n 72.285 36.083 m
81.029 36.083 l
gsave
0 0 0 0 0 B
grestore
n savemat currentmatrix pop [1 0 0 1 72.104 32.978] concat
25.4 1440 div 1.000000 mul dup scale 0 0 m
/tab 283.00 1000.0 mul cvi def

0 0 m 0 ss (Helvetica02400240) gf
0.00 0.00 0.00 rgb 
(lgrmx) s
savemat setmatrix
n savemat currentmatrix pop [1 0 0 1 59.305 35.283] concat
25.4 1440 div 1.000000 mul dup scale 0 0 m
/tab 283.00 1000.0 mul cvi def

0 0 m 0 ss (Helvetica02400240) gf
0.00 0.00 0.00 rgb 
(1) s
savemat setmatrix
n savemat currentmatrix pop [1 0 0 1 55.828 46.224] concat
25.4 1440 div 1.000000 mul dup scale 0 0 m
/tab 283.00 1000.0 mul cvi def

0 0 m 0 ss (Helvetica02400240) gf
0.00 0.00 0.00 rgb 
(dm) s
savemat setmatrix
n savemat currentmatrix pop [1 0 0 1 56.738 41.649] concat
25.4 1440 div 1.000000 mul dup scale 0 0 m
/tab 283.00 1000.0 mul cvi def

0 0 m 0 ss (Helvetica02400240) gf
0.00 0.00 0.00 rgb 
(dp) s
savemat setmatrix
n savemat currentmatrix pop [1 0 0 1 22.54 12.502] concat
25.4 1440 div 1.000000 mul dup scale 0 0 m
/tab 283.00 1000.0 mul cvi def

0 0 m 0 ss (Helvetica-Bold02800280) gf
0.00 0.00 0.00 rgb 
('trapz') s
savemat setmatrix
n 8.209 24.355 m 8.209 51.731 l
gsave
0 0 0 0 0 B
grestore
n 5.669 48.908 m 49.695 48.908 l
gsave
0 0 0 0 0 B
grestore
n savemat currentmatrix pop [1 0 0 1 3.693 25.484] concat
25.4 1440 div 1.000000 mul dup scale 0 0 m
/tab 283.00 1000.0 mul cvi def

0 0 m 0 ss (Helvetica02400240) gf
0.00 0.00 0.00 rgb 
(n) s
savemat setmatrix
n savemat currentmatrix pop [1 0 0 1 5.007 35.014] concat
25.4 1440 div 1.000000 mul dup scale 0 0 m
/tab 283.00 1000.0 mul cvi def

0 0 m 0 ss (Helvetica02400240) gf
0.00 0.00 0.00 rgb 
(1) s
savemat setmatrix
n 20.062 33.386 m 39.535 33.386 l
gsave
0 0 0 0.352 0 B
grestore
n 19.94 33.546 m 14.295 46.074 l
gsave
0 0 0 0.352 0 B
grestore
n 19.658 29.031 m
22.158 28.198 l
22.158 29.864 l
cl
0 0 0 F
n 39.413 29.031 m
36.913 29.864 l
36.913 28.198 l
cl
0 0 0 F
n 22.158 29.031 m
36.913 29.031 l
gsave
0 0 0 0 0 B
grestore
n 40.26 31.382 m
42.76 30.549 l
42.76 32.215 l
cl
0 0 0 F
n 46.469 31.382 m
43.969 32.215 l
43.969 30.549 l
cl
0 0 0 F
n 42.76 31.382 m
43.969 31.382 l
gsave
0 0 0 0 0 B
grestore
n 39.818 33.668 m 45.462 40.432 l
gsave
0 0 0 0.352 0 B
grestore
n 29.253 47.94 m 29.253 50.197 l
gsave
0 0 0 0 0 B
grestore
n savemat currentmatrix pop [1 0 0 1 25.302 25.926] concat
25.4 1440 div 1.000000 mul dup scale 0 0 m
/tab 283.00 1000.0 mul cvi def

0 0 m 0 ss (Helvetica02400240) gf
0.00 0.00 0.00 rgb 
(largx) s
savemat setmatrix
n savemat currentmatrix pop [1 0 0 1 22.48 54.431] concat
25.4 1440 div 1.000000 mul dup scale 0 0 m
/tab 283.00 1000.0 mul cvi def

0 0 m 0 ss (Helvetica02400240) gf
0.00 0.00 0.00 rgb 
(centrex) s
savemat setmatrix
n savemat currentmatrix pop [1 0 0 1 39.131 28.277] concat
25.4 1440 div 1.000000 mul dup scale 0 0 m
/tab 283.00 1000.0 mul cvi def

0 0 m 0 ss (Helvetica02400240) gf
0.00 0.00 0.00 rgb 
(lgrpx) s
savemat setmatrix
n 8.189 48.9 m 14.47 48.9 l
gsave
0 0 0 0.352 0 B
grestore
n 45.312 48.826 m 49.753 48.832 l
gsave
0 0 0 0.352 0 B
grestore
n 45.361 48.738 m 45.368 40.276 l
gsave
0 0 0 0.352 0 B
grestore
n 13.432 31.666 m
15.932 30.833 l
15.932 32.499 l
cl
0 0 0 F
n 19.641 31.666 m
17.141 32.499 l
17.141 30.833 l
cl
0 0 0 F
n 15.932 31.666 m
17.141 31.666 l
gsave
0 0 0 0 0 B
grestore
n savemat currentmatrix pop [1 0 0 1 11.52 28.561] concat
25.4 1440 div 1.000000 mul dup scale 0 0 m
/tab 283.00 1000.0 mul cvi def

0 0 m 0 ss (Helvetica02400240) gf
0.00 0.00 0.00 rgb 
(lgrmx) s
savemat setmatrix
n 14.302 48.865 m 14.309 45.917 l
gsave
0 0 0 0.352 0 B
grestore
n savemat currentmatrix pop [1 0 0 1 1.53 46.895] concat
25.4 1440 div 1.000000 mul dup scale 0 0 m
/tab 283.00 1000.0 mul cvi def

0 0 m 0 ss (Helvetica02400240) gf
0.00 0.00 0.00 rgb 
(dm) s
savemat setmatrix
n savemat currentmatrix pop [1 0 0 1 2.44 40.91] concat
25.4 1440 div 1.000000 mul dup scale 0 0 m
/tab 283.00 1000.0 mul cvi def

0 0 m 0 ss (Helvetica02400240) gf
0.00 0.00 0.00 rgb 
(dp) s
savemat setmatrix
n savemat currentmatrix pop [1 0 0 1 22.51 75.472] concat
25.4 1440 div 1.000000 mul dup scale 0 0 m
/tab 283.00 1000.0 mul cvi def

0 0 m 0 ss (Helvetica-Bold02800280) gf
0.00 0.00 0.00 rgb 
('expon') s
savemat setmatrix
n 8.179 87.325 m 8.179 114.7 l
gsave
0 0 0 0 0 B
grestore
n 5.639 111.88 m 49.665 111.88 l
gsave
0 0 0 0 0 B
grestore
n savemat currentmatrix pop [1 0 0 1 3.663 88.454] concat
25.4 1440 div 1.000000 mul dup scale 0 0 m
/tab 283.00 1000.0 mul cvi def

0 0 m 0 ss (Helvetica02400240) gf
0.00 0.00 0.00 rgb 
(n) s
savemat setmatrix
n savemat currentmatrix pop [1 0 0 1 2.605 97.872] concat
25.4 1440 div 1.000000 mul dup scale 0 0 m
/tab 283.00 1000.0 mul cvi def

0 0 m 0 ss (Helvetica02400240) gf
0.00 0.00 0.00 rgb 
(dp) s
savemat setmatrix
n 18.032 107.03 m 14.265 111.76 l
gsave
0 0 0 0.352 0 B
grestore
n 19.628 92.001 m
22.128 91.168 l
22.128 92.834 l
cl
0 0 0 F
n 38.003 92.001 m
35.503 92.834 l
35.503 91.168 l
cl
0 0 0 F
n 22.128 92.001 m
35.503 92.001 l
gsave
0 0 0 0 0 B
grestore
n 38.585 92.001 m
41.085 91.168 l
41.085 92.834 l
cl
0 0 0 F
n 44.595 92.001 m
42.095 92.834 l
42.095 91.168 l
cl
0 0 0 F
n 41.085 92.001 m
42.095 92.001 l
gsave
0 0 0 0 0 B
grestore
n 38.237 96.171 m 44.014 111.88 l
gsave
0 0 0 0.352 0 B
grestore
n 29.223 110.91 m 29.223 113.17 l
gsave
0 0 0 0 0 B
grestore
n savemat currentmatrix pop [1 0 0 1 24.497 88.896] concat
25.4 1440 div 1.000000 mul dup scale 0 0 m
/tab 283.00 1000.0 mul cvi def

0 0 m 0 ss (Helvetica02400240) gf
0.00 0.00 0.00 rgb 
(largx) s
savemat setmatrix
n savemat currentmatrix pop [1 0 0 1 22.451 117.401] concat
25.4 1440 div 1.000000 mul dup scale 0 0 m
/tab 283.00 1000.0 mul cvi def

0 0 m 0 ss (Helvetica02400240) gf
0.00 0.00 0.00 rgb 
(centrex) s
savemat setmatrix
n savemat currentmatrix pop [1 0 0 1 37.162 88.896] concat
25.4 1440 div 1.000000 mul dup scale 0 0 m
/tab 283.00 1000.0 mul cvi def

0 0 m 0 ss (Helvetica02400240) gf
0.00 0.00 0.00 rgb 
(lgrpx) s
savemat setmatrix
n 8.159 111.87 m 14.44 111.87 l
gsave
0 0 0 0.352 0 B
grestore
n 44.312 111.8 m 48.753 111.8 l
gsave
0 0 0 0.352 0 B
grestore
n 18.032 107.03 m 23.708 106.58 28.922 105.51 32.429 103.73 c
35.936 101.96 37.151 99.054 38.197 96.171 c
gsave
0 0 0 0.352 0 B
grestore
n savemat currentmatrix pop [1 0 0 1 1.553 107.872] concat
25.4 1440 div 1.000000 mul dup scale 0 0 m
/tab 283.00 1000.0 mul cvi def

0 0 m 0 ss (Helvetica02400240) gf
0.00 0.00 0.00 rgb 
(dm) s
savemat setmatrix
n 12.409 100.26 m
14.909 99.423 l
14.909 101.09 l
cl
0 0 0 F
n 18.049 100.26 m
15.549 101.09 l
15.549 99.423 l
cl
0 0 0 F
n 14.909 100.26 m
15.549 100.26 l
gsave
0 0 0 0 0 B
grestore
n savemat currentmatrix pop [1 0 0 1 10.129 97.151] concat
25.4 1440 div 1.000000 mul dup scale 0 0 m
/tab 283.00 1000.0 mul cvi def

0 0 m 0 ss (Helvetica02400240) gf
0.00 0.00 0.00 rgb 
(lgrmx) s
savemat setmatrix
n savemat currentmatrix pop [1 0 0 1 134.646 12.38] concat
25.4 1440 div 1.000000 mul dup scale 0 0 m
/tab 283.00 1000.0 mul cvi def

0 0 m 0 ss (Helvetica-Bold02800280) gf
0.00 0.00 0.00 rgb 
('bipla') s
savemat setmatrix
n 120.31 24.233 m 120.31 51.609 l
gsave
0 0 0 0 0 B
grestore
n 117.77 48.786 m 161.8 48.786 l
gsave
0 0 0 0 0 B
grestore
n savemat currentmatrix pop [1 0 0 1 115.799 25.362] concat
25.4 1440 div 1.000000 mul dup scale 0 0 m
/tab 283.00 1000.0 mul cvi def

0 0 m 0 ss (Helvetica02400240) gf
0.00 0.00 0.00 rgb 
(n) s
savemat setmatrix
n 137.92 48.641 m 147.79 48.641 l
gsave
0 0 0 0.352 0 B
grestore
n 137.28 29.058 m
139.78 28.225 l
139.78 29.891 l
cl
0 0 0 F
n 147.64 29.058 m
145.14 29.891 l
145.14 28.225 l
cl
0 0 0 F
n 139.78 29.058 m
145.14 29.058 l
gsave
0 0 0 0 0 B
grestore
n 147.94 34.41 m
150.44 33.577 l
150.44 35.243 l
cl
0 0 0 F
n 157.49 34.41 m
154.99 35.243 l
154.99 33.577 l
cl
0 0 0 F
n 150.44 34.41 m
154.99 34.41 l
gsave
0 0 0 0 0 B
grestore
n 142.81 47.818 m 142.81 50.075 l
gsave
0 0 0 0 0 B
grestore
n savemat currentmatrix pop [1 0 0 1 137.757 25.953] concat
25.4 1440 div 1.000000 mul dup scale 0 0 m
/tab 283.00 1000.0 mul cvi def

0 0 m 0 ss (Helvetica02400240) gf
0.00 0.00 0.00 rgb 
(largx) s
savemat setmatrix
n savemat currentmatrix pop [1 0 0 1 136.032 54.309] concat
25.4 1440 div 1.000000 mul dup scale 0 0 m
/tab 283.00 1000.0 mul cvi def

0 0 m 0 ss (Helvetica02400240) gf
0.00 0.00 0.00 rgb 
(centrex) s
savemat setmatrix
n savemat currentmatrix pop [1 0 0 1 148.4 31.305] concat
25.4 1440 div 1.000000 mul dup scale 0 0 m
/tab 283.00 1000.0 mul cvi def

0 0 m 0 ss (Helvetica02400240) gf
0.00 0.00 0.00 rgb 
(lgrpx) s
savemat setmatrix
n 120.3 48.777 m 127.22 48.777 l
gsave
0 0 0 0.352 0 B
grestore
n 157.42 48.703 m 161.86 48.71 l
gsave
0 0 0 0.352 0 B
grestore
n 157.57 48.703 m 157.57 37.772 l
gsave
0 0 0 0.352 0 B
grestore
n 127.22 44.831 m 137.48 44.831 l
gsave
0 0 0 0.352 0 B
grestore
n 127.1 48.899 m 127.11 44.668 l
gsave
0 0 0 0.352 0 B
grestore
n 126.81 39.514 m
129.31 38.681 l
129.31 40.347 l
cl
0 0 0 F
n 137.63 39.514 m
135.13 40.347 l
135.13 38.681 l
cl
0 0 0 F
n 129.31 39.514 m
135.13 39.514 l
gsave
0 0 0 0 0 B
grestore
n savemat currentmatrix pop [1 0 0 1 127.639 36.409] concat
25.4 1440 div 1.000000 mul dup scale 0 0 m
/tab 283.00 1000.0 mul cvi def

0 0 m 0 ss (Helvetica02400240) gf
0.00 0.00 0.00 rgb 
(lgrmx) s
savemat setmatrix
n savemat currentmatrix pop [1 0 0 1 113.305 46.072] concat
25.4 1440 div 1.000000 mul dup scale 0 0 m
/tab 283.00 1000.0 mul cvi def

0 0 m 0 ss (Helvetica02400240) gf
0.00 0.00 0.00 rgb 
(dm) s
savemat setmatrix
n savemat currentmatrix pop [1 0 0 1 114.215 38.511] concat
25.4 1440 div 1.000000 mul dup scale 0 0 m
/tab 283.00 1000.0 mul cvi def

0 0 m 0 ss (Helvetica02400240) gf
0.00 0.00 0.00 rgb 
(dp) s
savemat setmatrix
n 137.55 48.671 m 137.56 44.789 l
gsave
0 0 0 0.352 0 B
grestore
n 147.78 37.662 m 157.64 37.662 l
gsave
0 0 0 0.352 0 B
grestore
n 147.71 48.7 m 147.72 37.769 l
gsave
0 0 0 0.352 0 B
grestore
n savemat currentmatrix pop [1 0 0 1 22.398 199.242] concat
25.4 1440 div 1.000000 mul dup scale 0 0 m
/tab 283.00 1000.0 mul cvi def

0 0 m 0 ss (Helvetica-Bold02800280) gf
0.00 0.00 0.00 rgb 
('cones') s
savemat setmatrix
n 8.067 211.09 m 8.067 238.47 l
gsave
0 0 0 0 0 B
grestore
n 5.527 235.65 m 49.553 235.65 l
gsave
0 0 0 0 0 B
grestore
n 19.971 215.77 m
22.471 214.94 l
22.471 216.6 l
cl
0 0 0 F
n 35.482 215.77 m
32.982 216.6 l
32.982 214.94 l
cl
0 0 0 F
n 22.471 215.77 m
32.982 215.77 l
gsave
0 0 0 0 0 B
grestore
n 38.957 221.59 m
39.79 224.09 l
38.124 224.09 l
cl
0 0 0 F
n 38.957 227.44 m
38.124 224.94 l
39.79 224.94 l
cl
0 0 0 F
n 38.957 224.09 m
38.957 224.94 l
gsave
0 0 0 0 0 B
grestore
n 35.365 221.23 m 35.365 227.24 l
gsave
0 0 0 1.058 0 B
grestore
n 35.482 221.81 m 20.353 217.34 l
gsave
0 0 0 1.058 0 B
grestore
n 35.289 226.85 m 20.231 231.7 l
gsave
0 0 0 1.058 0 B
grestore
n 35.316 234.68 m 35.316 236.94 l
gsave
0 0 0 0 0 B
grestore
n savemat currentmatrix pop [1 0 0 1 25.16 212.666] concat
25.4 1440 div 1.000000 mul dup scale 0 0 m
/tab 283.00 1000.0 mul cvi def

0 0 m 0 ss (Helvetica02400240) gf
0.00 0.00 0.00 rgb 
(largy) s
savemat setmatrix
n savemat currentmatrix pop [1 0 0 1 28.543 241.171] concat
25.4 1440 div 1.000000 mul dup scale 0 0 m
/tab 283.00 1000.0 mul cvi def

0 0 m 0 ss (Helvetica02400240) gf
0.00 0.00 0.00 rgb 
(centrex) s
savemat setmatrix
n savemat currentmatrix pop [1 0 0 1 41.51 225.656] concat
25.4 1440 div 1.000000 mul dup scale 0 0 m
/tab 283.00 1000.0 mul cvi def

0 0 m 0 ss (Helvetica02400240) gf
0.00 0.00 0.00 rgb 
(lgrpy) s
savemat setmatrix
n 9.217 224.09 m 6.96 224.09 l
gsave
0 0 0 0 0 B
grestore
n savemat currentmatrix pop [0 -1 1 0 4.402 231.136] concat
25.4 1440 div 1.000000 mul dup scale 0 0 m
/tab 283.00 1000.0 mul cvi def

0 0 m 0 ss (Helvetica02400240) gf
0.00 0.00 0.00 rgb 
(centrey) s
savemat setmatrix
n 14.638 217.62 m
15.471 220.12 l
13.805 220.12 l
cl
0 0 0 F
n 14.638 231.51 m
13.805 229.01 l
15.471 229.01 l
cl
0 0 0 F
n 14.638 220.12 m
14.638 229.01 l
gsave
0 0 0 0 0 B
grestore
n savemat currentmatrix pop [1 0 0 1 15.058 225.574] concat
25.4 1440 div 1.000000 mul dup scale 0 0 m
/tab 283.00 1000.0 mul cvi def

0 0 m 0 ss (Helvetica02400240) gf
0.00 0.00 0.00 rgb 
(lgrmy) s
savemat setmatrix
n 32.459 231.6 m
34.959 230.77 l
34.959 232.44 l
cl
0 0 0 F
n 38.31 231.6 m
35.81 232.44 l
35.81 230.77 l
cl
0 0 0 F
n 34.959 231.6 m
35.81 231.6 l
gsave
0 0 0 0 0 B
grestore
n savemat currentmatrix pop [1 0 0 1 39.488 233.33] concat
25.4 1440 div 1.000000 mul dup scale 0 0 m
/tab 283.00 1000.0 mul cvi def

0 0 m 0 ss (Helvetica02400240) gf
0.00 0.00 0.00 rgb 
(largx) s
savemat setmatrix
n savemat currentmatrix pop [1 0 0 1 77.106 75.583] concat
25.4 1440 div 1.000000 mul dup scale 0 0 m
/tab 283.00 1000.0 mul cvi def

0 0 m 0 ss (Helvetica-Bold02800280) gf
0.00 0.00 0.00 rgb 
('expo2') s
savemat setmatrix
n 62.775 87.436 m 62.775 114.81 l
gsave
0 0 0 0 0 B
grestore
n 60.235 111.99 m 104.26 111.99 l
gsave
0 0 0 0 0 B
grestore
n savemat currentmatrix pop [1 0 0 1 58.259 88.565] concat
25.4 1440 div 1.000000 mul dup scale 0 0 m
/tab 283.00 1000.0 mul cvi def

0 0 m 0 ss (Helvetica02400240) gf
0.00 0.00 0.00 rgb 
(n) s
savemat setmatrix
n savemat currentmatrix pop [1 0 0 1 57.201 97.984] concat
25.4 1440 div 1.000000 mul dup scale 0 0 m
/tab 283.00 1000.0 mul cvi def

0 0 m 0 ss (Helvetica02400240) gf
0.00 0.00 0.00 rgb 
(dp) s
savemat setmatrix
n 72.627 107.14 m 68.861 111.87 l
gsave
0 0 0 0.352 0 B
grestore
n 74.224 92.112 m
76.724 91.279 l
76.724 92.945 l
cl
0 0 0 F
n 92.598 92.112 m
90.098 92.945 l
90.098 91.279 l
cl
0 0 0 F
n 76.724 92.112 m
90.098 92.112 l
gsave
0 0 0 0 0 B
grestore
n 93.18 92.112 m
95.68 91.279 l
95.68 92.945 l
cl
0 0 0 F
n 99.855 92.112 m
97.355 92.945 l
97.355 91.279 l
cl
0 0 0 F
n 95.68 92.112 m
97.355 92.112 l
gsave
0 0 0 0 0 B
grestore
n 83.819 111.02 m 83.819 113.28 l
gsave
0 0 0 0 0 B
grestore
n savemat currentmatrix pop [1 0 0 1 79.092 89.007] concat
25.4 1440 div 1.000000 mul dup scale 0 0 m
/tab 283.00 1000.0 mul cvi def

0 0 m 0 ss (Helvetica02400240) gf
0.00 0.00 0.00 rgb 
(largx) s
savemat setmatrix
n savemat currentmatrix pop [1 0 0 1 77.046 117.512] concat
25.4 1440 div 1.000000 mul dup scale 0 0 m
/tab 283.00 1000.0 mul cvi def

0 0 m 0 ss (Helvetica02400240) gf
0.00 0.00 0.00 rgb 
(centrex) s
savemat setmatrix
n savemat currentmatrix pop [1 0 0 1 92.146 89.007] concat
25.4 1440 div 1.000000 mul dup scale 0 0 m
/tab 283.00 1000.0 mul cvi def

0 0 m 0 ss (Helvetica02400240) gf
0.00 0.00 0.00 rgb 
(lgrpx) s
savemat setmatrix
n 62.755 111.98 m 69.035 111.98 l
gsave
0 0 0 0.352 0 B
grestore
n 99.683 111.91 m 104.12 111.91 l
gsave
0 0 0 0.352 0 B
grestore
n 72.627 107.14 m 78.303 106.69 83.517 105.62 87.024 103.85 c
90.531 102.07 91.746 99.166 92.792 96.282 c
gsave
0 0 0 0.352 0 B
grestore
n savemat currentmatrix pop [1 0 0 1 56.149 107.984] concat
25.4 1440 div 1.000000 mul dup scale 0 0 m
/tab 283.00 1000.0 mul cvi def

0 0 m 0 ss (Helvetica02400240) gf
0.00 0.00 0.00 rgb 
(dm) s
savemat setmatrix
n 67.005 100.37 m
69.505 99.534 l
69.505 101.2 l
cl
0 0 0 F
n 72.644 100.37 m
70.144 101.2 l
70.144 99.534 l
cl
0 0 0 F
n 69.505 100.37 m
70.144 100.37 l
gsave
0 0 0 0 0 B
grestore
n savemat currentmatrix pop [1 0 0 1 64.724 97.262] concat
25.4 1440 div 1.000000 mul dup scale 0 0 m
/tab 283.00 1000.0 mul cvi def

0 0 m 0 ss (Helvetica02400240) gf
0.00 0.00 0.00 rgb 
(lgrmx) s
savemat setmatrix
n 93.009 96.507 m 99.855 96.513 l
gsave
0 0 0 0.352 0 B
grestore
n 100.03 111.88 m 100.04 96.559 l
gsave
0 0 0 0.352 0 B
grestore
n savemat currentmatrix pop [1 0 0 1 134.334 75.629] concat
25.4 1440 div 1.000000 mul dup scale 0 0 m
/tab 283.00 1000.0 mul cvi def

0 0 m 0 ss (Helvetica-Bold02800280) gf
0.00 0.00 0.00 rgb 
('parab') s
savemat setmatrix
n 120 87.482 m 120 114.86 l
gsave
0 0 0 0 0 B
grestore
n 117.46 112.03 m 161.49 112.03 l
gsave
0 0 0 0 0 B
grestore
n savemat currentmatrix pop [1 0 0 1 115.487 88.611] concat
25.4 1440 div 1.000000 mul dup scale 0 0 m
/tab 283.00 1000.0 mul cvi def

0 0 m 0 ss (Helvetica02400240) gf
0.00 0.00 0.00 rgb 
(n) s
savemat setmatrix
n savemat currentmatrix pop [1 0 0 1 116.801 98.141] concat
25.4 1440 div 1.000000 mul dup scale 0 0 m
/tab 283.00 1000.0 mul cvi def

0 0 m 0 ss (Helvetica02400240) gf
0.00 0.00 0.00 rgb 
(1) s
savemat setmatrix
n 131.86 96.513 m 151.33 96.513 l
gsave
0 0 0 0.352 0 B
grestore
n 131.45 92.158 m
133.95 91.325 l
133.95 92.991 l
cl
0 0 0 F
n 151.21 92.158 m
148.71 92.991 l
148.71 91.325 l
cl
0 0 0 F
n 133.95 92.158 m
148.71 92.158 l
gsave
0 0 0 0 0 B
grestore
n 152.05 94.509 m
154.55 93.676 l
154.55 95.342 l
cl
0 0 0 F
n 158.26 94.509 m
155.76 95.342 l
155.76 93.676 l
cl
0 0 0 F
n 154.55 94.509 m
155.76 94.509 l
gsave
0 0 0 0 0 B
grestore
n 141.05 111.07 m 141.05 113.32 l
gsave
0 0 0 0 0 B
grestore
n savemat currentmatrix pop [1 0 0 1 137.096 89.053] concat
25.4 1440 div 1.000000 mul dup scale 0 0 m
/tab 283.00 1000.0 mul cvi def

0 0 m 0 ss (Helvetica02400240) gf
0.00 0.00 0.00 rgb 
(largx) s
savemat setmatrix
n savemat currentmatrix pop [1 0 0 1 134.274 117.558] concat
25.4 1440 div 1.000000 mul dup scale 0 0 m
/tab 283.00 1000.0 mul cvi def

0 0 m 0 ss (Helvetica02400240) gf
0.00 0.00 0.00 rgb 
(centrex) s
savemat setmatrix
n savemat currentmatrix pop [1 0 0 1 150.925 91.404] concat
25.4 1440 div 1.000000 mul dup scale 0 0 m
/tab 283.00 1000.0 mul cvi def

0 0 m 0 ss (Helvetica02400240) gf
0.00 0.00 0.00 rgb 
(lgrpx) s
savemat setmatrix
n 119.98 112.03 m 126.26 112.03 l
gsave
0 0 0 0.352 0 B
grestore
n 157.1 111.95 m 161.55 111.96 l
gsave
0 0 0 0.352 0 B
grestore
n 157.16 111.86 m 157.16 103.4 l
gsave
0 0 0 0.352 0 B
grestore
n 125.23 94.793 m
127.73 93.96 l
127.73 95.626 l
cl
0 0 0 F
n 131.44 94.793 m
128.94 95.626 l
128.94 93.96 l
cl
0 0 0 F
n 127.73 94.793 m
128.94 94.793 l
gsave
0 0 0 0 0 B
grestore
n savemat currentmatrix pop [1 0 0 1 123.313 91.688] concat
25.4 1440 div 1.000000 mul dup scale 0 0 m
/tab 283.00 1000.0 mul cvi def

0 0 m 0 ss (Helvetica02400240) gf
0.00 0.00 0.00 rgb 
(lgrmx) s
savemat setmatrix
n 126.1 111.99 m 126.1 109.04 l
gsave
0 0 0 0.352 0 B
grestore
n savemat currentmatrix pop [1 0 0 1 113.323 110.022] concat
25.4 1440 div 1.000000 mul dup scale 0 0 m
/tab 283.00 1000.0 mul cvi def

0 0 m 0 ss (Helvetica02400240) gf
0.00 0.00 0.00 rgb 
(dm) s
savemat setmatrix
n savemat currentmatrix pop [1 0 0 1 114.234 104.037] concat
25.4 1440 div 1.000000 mul dup scale 0 0 m
/tab 283.00 1000.0 mul cvi def

0 0 m 0 ss (Helvetica02400240) gf
0.00 0.00 0.00 rgb 
(dp) s
savemat setmatrix
n 132.04 96.365 m 131.59 96.863 131.07 95.996 129.72 97.858 c
128.16 99.991 126.93 104.97 126.22 109.16 c
gsave
0 0 0 0.352 0 B
grestore
n 151.35 96.476 m 151.81 96.743 152.33 96.278 153.71 97.278 c
155.28 98.422 156.53 101.09 157.25 103.34 c
gsave
0 0 0 0.352 0 B
grestore
n savemat currentmatrix pop [1 0 0 1 76.9891 199.364] concat
25.4 1440 div 1.000000 mul dup scale 0 0 m
/tab 283.00 1000.0 mul cvi def

0 0 m 0 ss (Helvetica-Bold02800280) gf
0.00 0.00 0.00 rgb 
('coqu1') s
savemat setmatrix
n 62.658 211.22 m 62.658 238.59 l
gsave
0 0 0 0 0 B
grestore
n 60.118 235.77 m 104.14 235.77 l
gsave
0 0 0 0 0 B
grestore
n 89.956 210.63 m 89.956 215.62 l
gsave
0 0 0 1.058 0 B
grestore
n 89.907 234.8 m 89.907 237.06 l
gsave
0 0 0 0 0 B
grestore
n savemat currentmatrix pop [1 0 0 1 83.1341 241.293] concat
25.4 1440 div 1.000000 mul dup scale 0 0 m
/tab 283.00 1000.0 mul cvi def

0 0 m 0 ss (Helvetica02400240) gf
0.00 0.00 0.00 rgb 
(centrex) s
savemat setmatrix
n 63.808 224.21 m 61.551 224.21 l
gsave
0 0 0 0 0 B
grestore
n savemat currentmatrix pop [0 -1 1 0 58.9931 231.258] concat
25.4 1440 div 1.000000 mul dup scale 0 0 m
/tab 283.00 1000.0 mul cvi def

0 0 m 0 ss (Helvetica02400240) gf
0.00 0.00 0.00 rgb 
(centrey) s
savemat setmatrix
n 87.05 208.58 m
89.55 207.75 l
89.55 209.42 l
cl
0 0 0 F
n 92.901 208.58 m
90.401 209.42 l
90.401 207.75 l
cl
0 0 0 F
n 89.55 208.58 m
90.401 208.58 l
gsave
0 0 0 0 0 B
grestore
n savemat currentmatrix pop [1 0 0 1 95.208 209.746] concat
25.4 1440 div 1.000000 mul dup scale 0 0 m
/tab 283.00 1000.0 mul cvi def

0 0 m 0 ss (Helvetica02400240) gf
0.00 0.00 0.00 rgb 
(largx) s
savemat setmatrix
n 89.796 230.51 m 89.796 235.5 l
gsave
0 0 0 1.058 0 B
grestore
7.3378 6.9144 90 89.888 222.96 el
gsave
0 0 0 0.706 0 B
grestore
n 90.593 214.21 m
105.27 214.21 l
105.27 231.7 l
90.593 231.7 l
cl
1 1 1 F
gsave
1 1 1 0 0 B
grestore
n 92.371 216.34 m
93.205 218.84 l
91.538 218.84 l
cl
0 0 0 F
n 92.371 223.52 m
91.538 221.02 l
93.205 221.02 l
cl
0 0 0 F
n 92.371 218.84 m
92.371 221.02 l
gsave
0 0 0 0 0 B
grestore
n savemat currentmatrix pop [1 0 0 1 94.4847 221.745] concat
25.4 1440 div 1.000000 mul dup scale 0 0 m
/tab 283.00 1000.0 mul cvi def

0 0 m 0 ss (Helvetica02400240) gf
0.00 0.00 0.00 rgb 
(lgrmx) s
savemat setmatrix
n savemat currentmatrix pop [1 0 0 1 134.402 199.204] concat
25.4 1440 div 1.000000 mul dup scale 0 0 m
/tab 283.00 1000.0 mul cvi def

0 0 m 0 ss (Helvetica-Bold02800280) gf
0.00 0.00 0.00 rgb 
('coqu2') s
savemat setmatrix
n 120.07 211.06 m 120.07 238.43 l
gsave
0 0 0 0 0 B
grestore
n 117.53 235.61 m 161.56 235.61 l
gsave
0 0 0 0 0 B
grestore
n 147.37 210.47 m 147.37 215.46 l
gsave
0 0 0 1.058 0 B
grestore
n 147.32 234.64 m 147.32 236.9 l
gsave
0 0 0 0 0 B
grestore
n savemat currentmatrix pop [1 0 0 1 140.547 241.133] concat
25.4 1440 div 1.000000 mul dup scale 0 0 m
/tab 283.00 1000.0 mul cvi def

0 0 m 0 ss (Helvetica02400240) gf
0.00 0.00 0.00 rgb 
(centrex) s
savemat setmatrix
n 121.22 224.05 m 118.96 224.05 l
gsave
0 0 0 0 0 B
grestore
n savemat currentmatrix pop [0 -1 1 0 116.406 231.098] concat
25.4 1440 div 1.000000 mul dup scale 0 0 m
/tab 283.00 1000.0 mul cvi def

0 0 m 0 ss (Helvetica02400240) gf
0.00 0.00 0.00 rgb 
(centrey) s
savemat setmatrix
n 144.46 208.42 m
146.96 207.59 l
146.96 209.26 l
cl
0 0 0 F
n 150.31 208.42 m
147.81 209.26 l
147.81 207.59 l
cl
0 0 0 F
n 146.96 208.42 m
147.81 208.42 l
gsave
0 0 0 0 0 B
grestore
n savemat currentmatrix pop [1 0 0 1 152.621 209.586] concat
25.4 1440 div 1.000000 mul dup scale 0 0 m
/tab 283.00 1000.0 mul cvi def

0 0 m 0 ss (Helvetica02400240) gf
0.00 0.00 0.00 rgb 
(largx) s
savemat setmatrix
n 147.21 230.35 m 147.21 235.34 l
gsave
0 0 0 1.058 0 B
grestore
7.3378 6.9144 90 147.3 222.8 el
gsave
0 0 0 0.706 0 B
grestore
n 147.53 216.18 m
148.36 218.68 l
146.69 218.68 l
cl
0 0 0 F
n 147.53 223.36 m
146.69 220.86 l
148.36 220.86 l
cl
0 0 0 F
n 147.53 218.68 m
147.53 220.86 l
gsave
0 0 0 0 0 B
grestore
n savemat currentmatrix pop [1 0 0 1 128.191 221.585] concat
25.4 1440 div 1.000000 mul dup scale 0 0 m
/tab 283.00 1000.0 mul cvi def

0 0 m 0 ss (Helvetica02400240) gf
0.00 0.00 0.00 rgb 
(lgrmx) s
savemat setmatrix
7.1967 7.0556 90 27.093 161.85 el
0.898 0.898 0.898 F
gsave
1 1 1 0 0 B
grestore
n savemat currentmatrix pop [1 0 0 1 22.238 137.558] concat
25.4 1440 div 1.000000 mul dup scale 0 0 m
/tab 283.00 1000.0 mul cvi def

0 0 m 0 ss (Helvetica-Bold02800280) gf
0.00 0.00 0.00 rgb 
('sphex') s
savemat setmatrix
n 7.907 149.41 m 7.907 176.79 l
gsave
0 0 0 0 0 B
grestore
n 5.367 173.96 m 49.393 173.96 l
gsave
0 0 0 0 0 B
grestore
n 26.529 149.01 m
29.029 148.17 l
29.029 149.84 l
cl
0 0 0 F
n 35.322 149.01 m
32.822 149.84 l
32.822 148.17 l
cl
0 0 0 F
n 29.029 149.01 m
32.822 149.01 l
gsave
0 0 0 0 0 B
grestore
n 30.923 173 m 30.923 175.25 l
gsave
0 0 0 0 0 B
grestore
n savemat currentmatrix pop [1 0 0 1 26.4111 146.466] concat
25.4 1440 div 1.000000 mul dup scale 0 0 m
/tab 283.00 1000.0 mul cvi def

0 0 m 0 ss (Helvetica02400240) gf
0.00 0.00 0.00 rgb 
(largx) s
savemat setmatrix
n savemat currentmatrix pop [1 0 0 1 24.1497 179.487] concat
25.4 1440 div 1.000000 mul dup scale 0 0 m
/tab 283.00 1000.0 mul cvi def

0 0 m 0 ss (Helvetica02400240) gf
0.00 0.00 0.00 rgb 
(centrex) s
savemat setmatrix
n 9.057 162.41 m 6.8 162.41 l
gsave
0 0 0 0 0 B
grestore
n savemat currentmatrix pop [0 -1 1 0 4.242 169.452] concat
25.4 1440 div 1.000000 mul dup scale 0 0 m
/tab 283.00 1000.0 mul cvi def

0 0 m 0 ss (Helvetica02400240) gf
0.00 0.00 0.00 rgb 
(centrey) s
savemat setmatrix
n savemat currentmatrix pop [1 0 0 1 12.6402 158.81] concat
25.4 1440 div 1.000000 mul dup scale 0 0 m
/tab 283.00 1000.0 mul cvi def

0 0 m 0 ss (Helvetica02400240) gf
0.00 0.00 0.00 rgb 
(lgrmx) s
savemat setmatrix
n 35.842 149.03 m
38.342 148.2 l
38.342 149.87 l
cl
0 0 0 F
n 42.383 149.03 m
39.883 149.87 l
39.883 148.2 l
cl
0 0 0 F
n 38.342 149.03 m
39.883 149.03 l
gsave
0 0 0 0 0 B
grestore
n savemat currentmatrix pop [1 0 0 1 38.4813 146.246] concat
25.4 1440 div 1.000000 mul dup scale 0 0 m
/tab 283.00 1000.0 mul cvi def

0 0 m 0 ss (Helvetica02400240) gf
0.00 0.00 0.00 rgb 
(lgrpx) s
savemat setmatrix
n 26.811 149.86 m
35.56 149.86 l
35.56 173.57 l
26.811 173.57 l
cl
0.4 0.4 0.4 F
gsave
1 1 1 0 0 B
grestore
n 19.756 162.26 m
22.256 161.43 l
22.256 163.09 l
cl
0 0 0 F
n 27.441 162.26 m
24.941 163.09 l
24.941 161.43 l
cl
0 0 0 F
n 22.256 162.26 m
24.941 162.26 l
gsave
0 0 0 0 0 B
grestore
n 26.896 154.38 m
27.729 156.88 l
26.062 156.88 l
cl
0 0 0 F
n 26.896 162.56 m
26.062 160.06 l
27.729 160.06 l
cl
0 0 0 F
n 26.896 156.88 m
26.896 160.06 l
gsave
0 0 0 0 0 B
grestore
n 35.56 150.14 m
41.769 150.14 l
41.769 173.28 l
35.56 173.28 l
cl
0.851 0.851 0.851 F
gsave
1 1 1 0 0 B
grestore
n savemat currentmatrix pop [1 0 0 1 44.5911 155.787] concat
25.4 1440 div 1.000000 mul dup scale 0 0 m
/tab 283.00 1000.0 mul cvi def

0 0 m 0 ss (Helvetica01800180) gf
0.00 0.00 0.00 rgb 
(lin\323aire) s
savemat setmatrix
n 48.824 156.63 m 38.664 160.3 l
gsave
0 0 0 0 0 B
grestore
n savemat currentmatrix pop [1 0 0 1 11.5711 170.18] concat
25.4 1440 div 1.000000 mul dup scale 0 0 m
/tab 283.00 1000.0 mul cvi def

0 0 m 0 ss (Helvetica01800180) gf
0.00 0.00 0.00 rgb 
(expon) s
savemat setmatrix
n 24.393 165.5 m 21.007 169.46 l
gsave
0 0 0 0 0 B
grestore
n savemat currentmatrix pop [1 0 0 1 17.4978 167.076] concat
25.4 1440 div 1.000000 mul dup scale 0 0 m
/tab 283.00 1000.0 mul cvi def

0 0 m 0 ss (Helvetica-Bold02200220) gf
1.00 0.00 0.00 rgb 
(dm  dp   dp   0) s
savemat setmatrix
7.1967 7.0556 90 82.089 161.82 el
0.898 0.898 0.898 F
gsave
1 1 1 0 0 B
grestore
n savemat currentmatrix pop [1 0 0 1 77.2336 137.52] concat
25.4 1440 div 1.000000 mul dup scale 0 0 m
/tab 283.00 1000.0 mul cvi def

0 0 m 0 ss (Helvetica-Bold02800280) gf
0.00 0.00 0.00 rgb 
('sphpr') s
savemat setmatrix
n 62.903 149.37 m 62.903 176.75 l
gsave
0 0 0 0 0 B
grestore
n 60.363 173.93 m 104.39 173.93 l
gsave
0 0 0 0 0 B
grestore
n 81.524 148.97 m
84.024 148.14 l
84.024 149.8 l
cl
0 0 0 F
n 90.318 148.97 m
87.818 149.8 l
87.818 148.14 l
cl
0 0 0 F
n 84.024 148.97 m
87.818 148.97 l
gsave
0 0 0 0 0 B
grestore
n 85.918 172.96 m 85.918 175.21 l
gsave
0 0 0 0 0 B
grestore
n savemat currentmatrix pop [1 0 0 1 81.4067 146.428] concat
25.4 1440 div 1.000000 mul dup scale 0 0 m
/tab 283.00 1000.0 mul cvi def

0 0 m 0 ss (Helvetica02400240) gf
0.00 0.00 0.00 rgb 
(largx) s
savemat setmatrix
n savemat currentmatrix pop [1 0 0 1 79.1452 179.449] concat
25.4 1440 div 1.000000 mul dup scale 0 0 m
/tab 283.00 1000.0 mul cvi def

0 0 m 0 ss (Helvetica02400240) gf
0.00 0.00 0.00 rgb 
(centrex) s
savemat setmatrix
n 64.053 162.37 m 61.796 162.37 l
gsave
0 0 0 0 0 B
grestore
n savemat currentmatrix pop [0 -1 1 0 59.2376 169.414] concat
25.4 1440 div 1.000000 mul dup scale 0 0 m
/tab 283.00 1000.0 mul cvi def

0 0 m 0 ss (Helvetica02400240) gf
0.00 0.00 0.00 rgb 
(centrey) s
savemat setmatrix
n savemat currentmatrix pop [1 0 0 1 67.6358 158.772] concat
25.4 1440 div 1.000000 mul dup scale 0 0 m
/tab 283.00 1000.0 mul cvi def

0 0 m 0 ss (Helvetica02400240) gf
0.00 0.00 0.00 rgb 
(lgrmx) s
savemat setmatrix
n 91.12 149 m
93.62 148.16 l
93.62 149.83 l
cl
0 0 0 F
n 97.661 149 m
95.161 149.83 l
95.161 148.16 l
cl
0 0 0 F
n 93.62 149 m
95.161 149 l
gsave
0 0 0 0 0 B
grestore
n savemat currentmatrix pop [1 0 0 1 93.4769 146.208] concat
25.4 1440 div 1.000000 mul dup scale 0 0 m
/tab 283.00 1000.0 mul cvi def

0 0 m 0 ss (Helvetica02400240) gf
0.00 0.00 0.00 rgb 
(lgrpx) s
savemat setmatrix
n 81.807 149.82 m
90.556 149.82 l
90.556 173.53 l
81.807 173.53 l
cl
0.4 0.4 0.4 F
gsave
1 1 1 0 0 B
grestore
n 74.751 162.22 m
77.251 161.39 l
77.251 163.05 l
cl
0 0 0 F
n 82.437 162.22 m
79.937 163.05 l
79.937 161.39 l
cl
0 0 0 F
n 77.251 162.22 m
79.937 162.22 l
gsave
0 0 0 0 0 B
grestore
n 81.891 154.34 m
82.725 156.84 l
81.058 156.84 l
cl
0 0 0 F
n 81.891 162.52 m
81.058 160.02 l
82.725 160.02 l
cl
0 0 0 F
n 81.891 156.84 m
81.891 160.02 l
gsave
0 0 0 0 0 B
grestore
n 90.838 150.1 m
97.047 150.1 l
97.047 173.25 l
90.838 173.25 l
cl
0.851 0.851 0.851 F
gsave
1 1 1 0 0 B
grestore
n savemat currentmatrix pop [1 0 0 1 99.5867 155.749] concat
25.4 1440 div 1.000000 mul dup scale 0 0 m
/tab 283.00 1000.0 mul cvi def

0 0 m 0 ss (Helvetica01800180) gf
0.00 0.00 0.00 rgb 
(lin\323aire) s
savemat setmatrix
n 103.82 156.6 m 93.66 160.26 l
gsave
0 0 0 0 0 B
grestore
n savemat currentmatrix pop [1 0 0 1 67.4133 172.118] concat
25.4 1440 div 1.000000 mul dup scale 0 0 m
/tab 283.00 1000.0 mul cvi def

0 0 m 0 ss (Helvetica01800180) gf
0.00 0.00 0.00 rgb 
(const) s
savemat setmatrix
n 79.107 166.88 m 75.72 170.83 l
gsave
0 0 0 0 0 B
grestore
n savemat currentmatrix pop [1 0 0 1 73.718 166.401] concat
25.4 1440 div 1.000000 mul dup scale 0 0 m
/tab 283.00 1000.0 mul cvi def

0 0 m 0 ss (Helvetica-Bold02200220) gf
1.00 0.00 0.00 rgb 
(dm  1     1   dp) s
savemat setmatrix
userdict /#copies 1 put
grestore

%%Trailer
%%DocumentNeededResources: font Helvetica-Bold Helvetica
%%DocumentSuppliedResources: 
end d_sv_obj restore
