******** Fichier de donnees pour le code K_lder ----------------------
********--------------------------------------------------------------
version_du_fichier
******** numero de version -------------------------------------------
1

ordre_interpolation
******** degre de la fonction de forme de projection/interpolation ---
1

dimension_du_cas
******** 2 (1d), 4 (2d), 6(3d) ---------------------------------------
5

cond_limites
******** cond. limites particulaires en -/+x, -/+y, -/+z -------------
-5  -5  -1  -1  -1  -1
******** cond. limites electromag. en -/+x, -/+y, -/+z ---------------
-2  -2  -1  -1  -1  -1

maillage_spatial
******** taille des mailles en x, y, z (c/w0) ------------------------
0.08         0.04       1
******** taille totale du domaine en x, y, z (nb mailles) ------------
257       128       1

nb_profils_plasma
******** nombre de profils plasma  -----------------------------------
1

taille_plasma
******** position du centre (c/w0) -----------------------------------
10.2      0.     0.
******** largeur et rampes en x, y, z (c/w0) -------------------------
'trapz'    5.9333    0.      0.     0.      0.
'trapz'    10.       0.      0.     0.      0.
'trapz'    400.      0.      0.     0.      0.

temps_simule
******** pas en temps et iteration finale ----------------------------
0.04   9100

src_laser
******** lambda, a_0, angle_y, angle_z, polar ------------------------
1.0   0.2093     0.    0.    1.
******** profil temp. : type, ordre, duree, montee, max --------------
'nolas'                  2       2830.       0.   5660.
******** profil y : type, ordre, largeur, rampe, centre --------------
'nolas'                  2         62.83      0.      0.
******** profil z : type, ordre, largeur, rampe, centre --------------
'nolas'                  2          3.        0.      0.

especes_plasma
******** nombre d'especes fluide et cin, nb max par espece/proc ------
0    2   500000

esp_particule
******** creation, nb par maille, dynamique, nb_cycles ---------------
1   50   1   1
******** periode de tri ----------------------------------------------
30
******** charge (e), masse (me), densite de charge (nc) --------------
-1.   1.     100.
******** type de distribution en x, y, z -----------------------------
0   0   0
******** temperatures en x, y, z (keV, c ou mc selon typ_dist), ordre 
10.22   10.22   0.   2
******** derives en x, y, z (c ou mc selon typ_dist et dynam) --------
0.  0.    0.
******** limites gauche et droite de l'espece (c/w0) -----------------
7.2   13.2

esp_particule
******** creation, nb par maille, dynamique, nb_cycles ---------------
6   50   1   5
******** periode de tri ----------------------------------------------
100
******** charge (e), masse (me), densite de charge (nc) --------------
1.   2000.     100.
******** type de distribution en x, y, z -----------------------------
0   0   0
******** temperatures en x, y, z (keV, c ou mc selon typ_dist), ordre 
0.511   0.511   0.   2
******** derives en x, y, z (c ou mc selon typ_dist et dynam) --------
0.  0.  0.
******** limites gauche et droite de l'espece (c/w0) -----------------
7.2   13.2

corr_poisson
******** correction, suivi ---------------------------------
1   1

diag_type
******** ecr, txt, bin, hdf (hdf non implem., defaut=ecr) --
'txt'

diag_temporels
******** Ex^2, Ey^2, Ez^2, Bx^2, By^2, Bz^2 --------------------------
1   1   1   1   1   1 

nb_diag_differents (facultatif, defauts = 4)
******** nombre max. de diags spatiaux et esp. phase -----------------
6   5

diag_moyens (facultatif, defauts = 6.28)
******** periodes moyennes diags spatiaux et esp. phase --------------
6.28     0.
  
diag_phase
******** projection de l'espace des phases ---------------------------
100
0.   0.
'qx'   0.   0.  200
'00'   0.   0.  1 
'00'   0.   0.  1

diag_phase
******** projection de l'espace des phases ---------------------------
100
0.   0.
'qx'   0.   0.  64
'qy'   0.   0.  64
'00'   0.   0.  1

diag_phase
******** projection de l'espace des phases ---------------------------
100
0.  0.
'px'   0.   0.  64
'py'   0.   0.  64 
'00'   0.   0.  1

diag_phase
******** projection de l'espace des phases ---------------------------
100
0.  0.
'qx'   0.   0.  64
'px'   0.   0.  64 
'00'   0.   0.  1

diag_phase
******** projection de l'espace des phases ---------------------------
100
0.  0.
'qy'   0.   0.  64
'py'   0.   0.  64 
'00'   0.   0.  1
  
diag_spatial
******** type, moyenne, periodicite, puis les 3 axes -----------------
'ex'     0      100
  0.     20.56  64
 -2.56   2.56   64
  0.     0.     0
  
diag_spatial
******** type, moyenne, periodicite, puis les 3 axes -----------------
'ey'     0      100
  0.     20.56  64
 -2.56   2.56   64
  0.     0.     0

diag_spatial
******** type, moyenne, periodicite, puis les 3 axes -----------------
'ez'     0      100
  0.     20.56  64
 -2.56   2.56   64
  0.     0.     0

diag_spatial
******** type, moyenne, periodicite, puis les 3 axes -----------------
'bx'     0      100
  0.     20.56  64
 -2.56   2.56   64
  0.     0.     0

diag_spatial
******** type, moyenne, periodicite, puis les 3 axes -----------------
'by'     0      100
  0.     20.56  64
 -2.56   2.56   64
  0.     0.     0

diag_spatial
******** type, moyenne, periodicite, puis les 3 axes -----------------
'bz'     0      100
  0.     20.56  64
 -2.56   2.56   64
  0.     0.     0
  
aide_debugging
******** verifications et messages pour la mise au point -------------
3

fin_fichier

dist_plasma
******** flag,type(1-2),periodicite-----------------------------------
1   1   250
******** centre et rayons en x,y,z------------------------------------
   15.  1000.
   0.   1000.
   0.     0.
******** energies max. (keV) des differentes especes -----------------
10.     500.
